{
  "__inputs": [
    {
      "name": "DS_VICTORIAMETRICS",
      "label": "VictoriaMetrics",
      "description": "",
      "type": "datasource",
      "pluginId": "prometheus",
      "pluginName": "Prometheus"
    },
    {
      "name": "DS_LOKI",
      "label": "Loki",
      "description": "",
      "type": "datasource",
      "pluginId": "loki",
      "pluginName": "Loki"
    }
  ],
  "__requires": [
    {
      "type": "grafana",
      "id": "grafana",
      "name": "Grafana",
      "version": "7.4.0"
    },
    {
      "type": "panel",
      "id": "graph",
      "name": "Graph",
      "version": ""
    },
    {
      "type": "panel",
      "id": "logs",
      "name": "Logs",
      "version": ""
    },
    {
      "type": "datasource",
      "id": "loki",
      "name": "Loki",
      "version": "1.0.0"
    },
    {
      "type": "datasource",
      "id": "prometheus",
      "name": "Prometheus",
      "version": "1.0.0"
    },
    {
      "type": "panel",
      "id": "table",
      "name": "Table",
      "version": ""
    }
  ],
  "annotations": {
    "list": [
      {
        "builtIn": 1,
        "datasource": "-- Grafana --",
        "enable": true,
        "hide": true,
        "iconColor": "rgba(0, 211, 255, 1)",
        "limit": 100,
        "name": "Annotations & Alerts",
        "showIn": 0,
        "type": "dashboard"
      },
      {
        "datasource": "VictoriaMetrics",
        "enable": true,
        "expr": "node_boot_time_seconds{host=~\"$host\"} * 1000",
        "hide": false,
        "iconColor": "rgba(255, 96, 96, 1)",
        "name": "Mark reboots",
        "showIn": 0,
        "step": "",
        "textFormat": "",
        "titleFormat": "{{host}} boot",
        "useValueForTime": true
      }
    ]
  },
  "description": "",
  "editable": true,
  "gnetId": null,
  "graphTooltip": 2,
  "id": null,
  "iteration": 1631651976339,
  "links": [
    {
      "asDropdown": false,
      "icon": "dashboard",
      "includeVars": false,
      "keepTime": false,
      "tags": [],
      "targetBlank": false,
      "title": "Panorama Mesh",
      "tooltip": "",
      "type": "link",
      "url": "/d/panorama-mesh"
    }
  ],
  "panels": [
    {
      "collapsed": false,
      "datasource": "VictoriaMetrics",
      "gridPos": {
        "h": 1,
        "w": 24,
        "x": 0,
        "y": 0
      },
      "id": 24,
      "panels": [],
      "title": "Technical details",
      "type": "row"
    },
    {
      "datasource": "VictoriaMetrics",
      "description": "",
      "fieldConfig": {
        "defaults": {
          "color": {
            "mode": "thresholds"
          },
          "custom": {
            "align": null,
            "filterable": false
          },
          "mappings": [],
          "thresholds": {
            "mode": "absolute",
            "steps": [
              {
                "color": "green",
                "value": null
              },
              {
                "color": "red",
                "value": 80
              }
            ]
          }
        },
        "overrides": [
          {
            "matcher": {
              "id": "byName",
              "options": "Field"
            },
            "properties": [
              {
                "id": "custom.width",
                "value": 109
              }
            ]
          }
        ]
      },
      "gridPos": {
        "h": 9,
        "w": 12,
        "x": 0,
        "y": 1
      },
      "id": 20,
      "options": {
        "showHeader": false,
        "sortBy": []
      },
      "pluginVersion": "7.4.0",
      "targets": [
        {
          "exemplar": false,
          "expr": "range_last(\n    node_openwrt_info{host=~\"$host\"}[$__range]\n)",
          "format": "table",
          "hide": false,
          "instant": true,
          "interval": "",
          "legendFormat": "",
          "queryType": "randomWalk",
          "refId": "A"
        }
      ],
      "title": "OpenWRT",
      "transformations": [
        {
          "id": "merge",
          "options": {}
        },
        {
          "id": "organize",
          "options": {
            "excludeByName": {
              "Time": false,
              "Value": true,
              "Value #A": true,
              "__name__": true,
              "ap_ssid": true,
              "domain": true,
              "domainname": true,
              "host": true,
              "nodename": true
            },
            "indexByName": {
              "Time": 0,
              "Value #A": 12,
              "__name__": 1,
              "board_name": 10,
              "domain": 3,
              "host": 2,
              "hostmac": 4,
              "id": 5,
              "model": 9,
              "release": 6,
              "revision": 7,
              "system": 11,
              "target": 8
            },
            "renameByName": {}
          }
        },
        {
          "id": "reduce",
          "options": {
            "includeTimeField": false,
            "mode": "seriesToRows",
            "reducers": [
              "last"
            ]
          }
        }
      ],
      "type": "table"
    },
    {
      "datasource": "VictoriaMetrics",
      "fieldConfig": {
        "defaults": {
          "color": {
            "mode": "thresholds"
          },
          "custom": {
            "align": null,
            "filterable": false
          },
          "mappings": [],
          "thresholds": {
            "mode": "absolute",
            "steps": [
              {
                "color": "green",
                "value": null
              },
              {
                "color": "red",
                "value": 80
              }
            ]
          }
        },
        "overrides": [
          {
            "matcher": {
              "id": "byName",
              "options": "Field"
            },
            "properties": [
              {
                "id": "custom.width",
                "value": 100
              }
            ]
          }
        ]
      },
      "gridPos": {
        "h": 9,
        "w": 12,
        "x": 12,
        "y": 1
      },
      "id": 19,
      "options": {
        "showHeader": false,
        "sortBy": []
      },
      "pluginVersion": "7.4.0",
      "targets": [
        {
          "exemplar": false,
          "expr": "range_last(\n    node_uname_info{host=~\"$host\"}[$__range]\n)",
          "format": "table",
          "hide": false,
          "instant": true,
          "interval": "",
          "legendFormat": "",
          "queryType": "randomWalk",
          "refId": "A"
        }
      ],
      "title": "Kernel",
      "transformations": [
        {
          "id": "merge",
          "options": {}
        },
        {
          "id": "organize",
          "options": {
            "excludeByName": {
              "Time": false,
              "Value": true,
              "Value #A": true,
              "__name__": true,
              "ap_ssid": true,
              "domain": true,
              "domainname": true,
              "host": true,
              "hostmac": true,
              "nodename": true
            },
            "indexByName": {
              "Time": 0,
              "Value #A": 11,
              "__name__": 1,
              "domain": 3,
              "domainname": 4,
              "host": 2,
              "hostmac": 5,
              "machine": 10,
              "nodename": 6,
              "release": 8,
              "sysname": 7,
              "version": 9
            },
            "renameByName": {}
          }
        },
        {
          "id": "reduce",
          "options": {
            "reducers": [
              "last"
            ]
          }
        }
      ],
      "type": "table"
    },
    {
      "collapsed": false,
      "datasource": "VictoriaMetrics",
      "gridPos": {
        "h": 1,
        "w": 24,
        "x": 0,
        "y": 10
      },
      "id": 9,
      "panels": [],
      "title": "CPU, RAM, Load",
      "type": "row"
    },
    {
      "aliasColors": {},
      "bars": false,
      "dashLength": 10,
      "dashes": false,
      "datasource": "VictoriaMetrics",
      "decimals": null,
      "description": "",
      "fieldConfig": {
        "defaults": {
          "custom": {}
        },
        "overrides": []
      },
      "fill": 1,
      "fillGradient": 0,
      "gridPos": {
        "h": 8,
        "w": 12,
        "x": 0,
        "y": 11
      },
      "hiddenSeries": false,
      "id": 2,
      "interval": "$interval",
      "legend": {
        "alignAsTable": true,
        "avg": true,
        "current": false,
        "hideEmpty": true,
        "hideZero": true,
        "max": true,
        "min": true,
        "rightSide": true,
        "show": true,
        "sideWidth": null,
        "total": false,
        "values": true
      },
      "lines": true,
      "linewidth": 1,
      "nullPointMode": "null",
      "options": {
        "alertThreshold": true
      },
      "percentage": false,
      "pluginVersion": "7.4.0",
      "pointradius": 2,
      "points": false,
      "renderer": "flot",
      "seriesOverrides": [],
      "spaceLength": 10,
      "stack": true,
      "steppedLine": false,
      "targets": [
        {
          "expr": "rate(node_cpu_seconds_total{host=~\"$host\"}[$interval]) <= 1",
          "instant": false,
          "interval": "",
          "legendFormat": "{{mode}}",
          "refId": "A"
        }
      ],
      "thresholds": [],
      "timeFrom": null,
      "timeRegions": [],
      "timeShift": null,
      "title": "CPU",
      "tooltip": {
        "shared": true,
        "sort": 0,
        "value_type": "individual"
      },
      "transformations": [
        {
          "id": "filterFieldsByName",
          "options": {
            "include": {
              "names": [
                "Time",
                "irq",
                "nice",
                "user",
                "guest",
                "steal",
                "iowait",
                "system",
                "softirq",
                "guest_nice"
              ]
            }
          }
        }
      ],
      "type": "graph",
      "xaxis": {
        "buckets": null,
        "mode": "time",
        "name": null,
        "show": true,
        "values": []
      },
      "yaxes": [
        {
          "decimals": 0,
          "format": "percentunit",
          "label": "",
          "logBase": 1,
          "max": "1",
          "min": "0",
          "show": true
        },
        {
          "format": "short",
          "label": null,
          "logBase": 1,
          "max": null,
          "min": null,
          "show": true
        }
      ],
      "yaxis": {
        "align": false,
        "alignLevel": null
      }
    },
    {
      "aliasColors": {},
      "bars": false,
      "dashLength": 10,
      "dashes": false,
      "datasource": "VictoriaMetrics",
      "fieldConfig": {
        "defaults": {
          "custom": {},
          "unit": "decbytes"
        },
        "overrides": []
      },
      "fill": 1,
      "fillGradient": 0,
      "gridPos": {
        "h": 8,
        "w": 12,
        "x": 12,
        "y": 11
      },
      "hiddenSeries": false,
      "id": 14,
      "interval": "$interval",
      "legend": {
        "alignAsTable": true,
        "avg": true,
        "current": false,
        "max": true,
        "min": true,
        "rightSide": true,
        "show": true,
        "total": false,
        "values": true
      },
      "lines": true,
      "linewidth": 1,
      "nullPointMode": "null",
      "options": {
        "alertThreshold": true
      },
      "percentage": false,
      "pluginVersion": "7.4.0",
      "pointradius": 2,
      "points": false,
      "renderer": "flot",
      "seriesOverrides": [],
      "spaceLength": 10,
      "stack": false,
      "steppedLine": false,
      "targets": [
        {
          "exemplar": false,
          "expr": "node_memory_MemTotal_bytes{host=~\"$host\"}",
          "interval": "",
          "legendFormat": "Total",
          "refId": "A"
        },
        {
          "exemplar": false,
          "expr": "node_memory_MemTotal_bytes{host=~\"$host\"} - node_memory_MemFree_bytes{host=~\"$host\"}",
          "interval": "",
          "legendFormat": "Used",
          "refId": "B"
        }
      ],
      "thresholds": [],
      "timeFrom": null,
      "timeRegions": [],
      "timeShift": null,
      "title": "RAM",
      "tooltip": {
        "shared": true,
        "sort": 0,
        "value_type": "individual"
      },
      "type": "graph",
      "xaxis": {
        "buckets": null,
        "mode": "time",
        "name": null,
        "show": true,
        "values": []
      },
      "yaxes": [
        {
          "format": "decbytes",
          "label": null,
          "logBase": 1,
          "max": null,
          "min": "0",
          "show": true
        },
        {
          "format": "short",
          "label": null,
          "logBase": 1,
          "max": null,
          "min": null,
          "show": true
        }
      ],
      "yaxis": {
        "align": false,
        "alignLevel": null
      }
    },
    {
      "aliasColors": {},
      "bars": false,
      "dashLength": 10,
      "dashes": false,
      "datasource": "VictoriaMetrics",
      "fieldConfig": {
        "defaults": {
          "custom": {}
        },
        "overrides": []
      },
      "fill": 1,
      "fillGradient": 0,
      "gridPos": {
        "h": 8,
        "w": 12,
        "x": 0,
        "y": 19
      },
      "hiddenSeries": false,
      "id": 7,
      "interval": "$interval",
      "legend": {
        "alignAsTable": true,
        "avg": true,
        "current": false,
        "max": true,
        "min": true,
        "rightSide": true,
        "show": true,
        "total": false,
        "values": true
      },
      "lines": true,
      "linewidth": 1,
      "nullPointMode": "null",
      "options": {
        "alertThreshold": true
      },
      "percentage": false,
      "pluginVersion": "7.4.0",
      "pointradius": 2,
      "points": false,
      "renderer": "flot",
      "seriesOverrides": [],
      "spaceLength": 10,
      "stack": false,
      "steppedLine": false,
      "targets": [
        {
          "exemplar": false,
          "expr": "node_load1{host=~\"$host\"}",
          "interval": "",
          "legendFormat": "Load 1m",
          "refId": "A"
        },
        {
          "exemplar": false,
          "expr": "node_load5{host=~\"$host\"}",
          "interval": "",
          "legendFormat": "Load 5m",
          "refId": "B"
        },
        {
          "exemplar": false,
          "expr": "node_load15{host=~\"$host\"}",
          "interval": "",
          "legendFormat": "Load 15m",
          "refId": "C"
        }
      ],
      "thresholds": [],
      "timeFrom": null,
      "timeRegions": [],
      "timeShift": null,
      "title": "Load",
      "tooltip": {
        "shared": true,
        "sort": 0,
        "value_type": "individual"
      },
      "type": "graph",
      "xaxis": {
        "buckets": null,
        "mode": "time",
        "name": null,
        "show": true,
        "values": []
      },
      "yaxes": [
        {
          "format": "short",
          "label": null,
          "logBase": 1,
          "max": null,
          "min": "0",
          "show": true
        },
        {
          "format": "short",
          "label": null,
          "logBase": 1,
          "max": null,
          "min": null,
          "show": true
        }
      ],
      "yaxis": {
        "align": false,
        "alignLevel": null
      }
    },
    {
      "aliasColors": {},
      "bars": false,
      "dashLength": 10,
      "dashes": false,
      "datasource": "VictoriaMetrics",
      "description": "",
      "fieldConfig": {
        "defaults": {
          "custom": {}
        },
        "overrides": []
      },
      "fill": 1,
      "fillGradient": 0,
      "gridPos": {
        "h": 8,
        "w": 12,
        "x": 12,
        "y": 19
      },
      "hiddenSeries": false,
      "id": 5,
      "interval": "$interval",
      "legend": {
        "alignAsTable": true,
        "avg": true,
        "current": false,
        "max": true,
        "min": true,
        "rightSide": true,
        "show": true,
        "sideWidth": null,
        "total": false,
        "values": true
      },
      "lines": true,
      "linewidth": 1,
      "nullPointMode": "null",
      "options": {
        "alertThreshold": true
      },
      "percentage": false,
      "pluginVersion": "7.4.0",
      "pointradius": 2,
      "points": false,
      "renderer": "flot",
      "seriesOverrides": [],
      "spaceLength": 10,
      "stack": false,
      "steppedLine": false,
      "targets": [
        {
          "exemplar": false,
          "expr": "rate(node_context_switches_total{host=~\"$host\"}[$interval])",
          "interval": "",
          "legendFormat": "Context switches",
          "refId": "A"
        },
        {
          "exemplar": false,
          "expr": "rate(node_intr_total{host=~\"$host\"}[$interval])",
          "hide": false,
          "interval": "",
          "legendFormat": "Interrupts",
          "refId": "B"
        }
      ],
      "thresholds": [],
      "timeFrom": null,
      "timeRegions": [],
      "timeShift": null,
      "title": "Context switches / Interrupts",
      "tooltip": {
        "shared": true,
        "sort": 0,
        "value_type": "individual"
      },
      "type": "graph",
      "xaxis": {
        "buckets": null,
        "mode": "time",
        "name": null,
        "show": true,
        "values": []
      },
      "yaxes": [
        {
          "format": "short",
          "label": "",
          "logBase": 1,
          "max": null,
          "min": "0",
          "show": true
        },
        {
          "format": "short",
          "label": null,
          "logBase": 1,
          "max": null,
          "min": null,
          "show": true
        }
      ],
      "yaxis": {
        "align": false,
        "alignLevel": null
      }
    },
    {
      "aliasColors": {},
      "bars": false,
      "dashLength": 10,
      "dashes": false,
      "datasource": "VictoriaMetrics",
      "description": "",
      "fieldConfig": {
        "defaults": {
          "custom": {}
        },
        "overrides": []
      },
      "fill": 1,
      "fillGradient": 0,
      "gridPos": {
        "h": 8,
        "w": 12,
        "x": 0,
        "y": 27
      },
      "hiddenSeries": false,
      "id": 4,
      "interval": "$interval",
      "legend": {
        "alignAsTable": true,
        "avg": true,
        "current": false,
        "max": true,
        "min": true,
        "rightSide": true,
        "show": true,
        "sideWidth": null,
        "total": false,
        "values": true
      },
      "lines": true,
      "linewidth": 1,
      "nullPointMode": "null",
      "options": {
        "alertThreshold": true
      },
      "percentage": false,
      "pluginVersion": "7.4.0",
      "pointradius": 2,
      "points": false,
      "renderer": "flot",
      "seriesOverrides": [],
      "spaceLength": 10,
      "stack": false,
      "steppedLine": false,
      "targets": [
        {
          "exemplar": false,
          "expr": "node_procs_running_total{host=~\"$host\"}",
          "interval": "",
          "legendFormat": "Running procs",
          "refId": "A"
        },
        {
          "exemplar": false,
          "expr": "rate(node_forks_total{host=~\"$host\"}[$interval])",
          "hide": false,
          "interval": "",
          "legendFormat": "Forks per sec",
          "refId": "B"
        }
      ],
      "thresholds": [],
      "timeFrom": null,
      "timeRegions": [],
      "timeShift": null,
      "title": "Procceses / Forks",
      "tooltip": {
        "shared": true,
        "sort": 0,
        "value_type": "individual"
      },
      "type": "graph",
      "xaxis": {
        "buckets": null,
        "mode": "time",
        "name": null,
        "show": true,
        "values": []
      },
      "yaxes": [
        {
          "format": "short",
          "label": null,
          "logBase": 1,
          "max": null,
          "min": "0",
          "show": true
        },
        {
          "format": "short",
          "label": null,
          "logBase": 1,
          "max": null,
          "min": null,
          "show": true
        }
      ],
      "yaxis": {
        "align": false,
        "alignLevel": null
      }
    },
    {
      "aliasColors": {},
      "bars": false,
      "dashLength": 10,
      "dashes": false,
      "datasource": "VictoriaMetrics",
      "description": "",
      "fieldConfig": {
        "defaults": {
          "custom": {}
        },
        "overrides": []
      },
      "fill": 1,
      "fillGradient": 0,
      "gridPos": {
        "h": 8,
        "w": 12,
        "x": 12,
        "y": 27
      },
      "hiddenSeries": false,
      "id": 15,
      "interval": "$interval",
      "legend": {
        "alignAsTable": true,
        "avg": true,
        "current": false,
        "max": true,
        "min": true,
        "rightSide": true,
        "show": true,
        "sideWidth": null,
        "total": false,
        "values": true
      },
      "lines": true,
      "linewidth": 1,
      "nullPointMode": "null",
      "options": {
        "alertThreshold": true
      },
      "percentage": false,
      "pluginVersion": "7.4.0",
      "pointradius": 2,
      "points": false,
      "renderer": "flot",
      "seriesOverrides": [],
      "spaceLength": 10,
      "stack": false,
      "steppedLine": false,
      "targets": [
        {
          "exemplar": false,
          "expr": "node_filefd_maximum{host=~\"$host\"}",
          "interval": "",
          "legendFormat": "Max open files",
          "refId": "A"
        },
        {
          "exemplar": false,
          "expr": "node_filefd_allocated{host=~\"$host\"}",
          "hide": false,
          "interval": "",
          "legendFormat": "Open files",
          "refId": "B"
        }
      ],
      "thresholds": [],
      "timeFrom": null,
      "timeRegions": [],
      "timeShift": null,
      "title": "File Descriptors",
      "tooltip": {
        "shared": true,
        "sort": 0,
        "value_type": "individual"
      },
      "type": "graph",
      "xaxis": {
        "buckets": null,
        "mode": "time",
        "name": null,
        "show": true,
        "values": []
      },
      "yaxes": [
        {
          "format": "short",
          "label": null,
          "logBase": 1,
          "max": null,
          "min": "0",
          "show": true
        },
        {
          "format": "short",
          "label": null,
          "logBase": 1,
          "max": null,
          "min": null,
          "show": true
        }
      ],
      "yaxis": {
        "align": false,
        "alignLevel": null
      }
    },
    {
      "collapsed": true,
      "datasource": "VictoriaMetrics",
      "gridPos": {
        "h": 1,
        "w": 24,
        "x": 0,
        "y": 35
      },
      "id": 22,
      "panels": [
        {
          "aliasColors": {},
          "bars": false,
          "dashLength": 10,
          "dashes": false,
          "datasource": "VictoriaMetrics",
          "description": "",
          "fieldConfig": {
            "defaults": {
              "custom": {}
            },
            "overrides": []
          },
          "fill": 1,
          "fillGradient": 0,
          "gridPos": {
            "h": 9,
            "w": 24,
            "x": 0,
            "y": 36
          },
          "hiddenSeries": false,
          "id": 17,
          "legend": {
            "avg": false,
            "current": false,
            "max": false,
            "min": false,
            "show": false,
            "total": false,
            "values": false
          },
          "lines": true,
          "linewidth": 1,
          "nullPointMode": "null",
          "options": {
            "alertThreshold": true
          },
          "percentage": false,
          "pluginVersion": "7.4.0",
          "pointradius": 2,
          "points": false,
          "renderer": "flot",
          "seriesOverrides": [],
          "spaceLength": 10,
          "stack": false,
          "steppedLine": false,
          "targets": [
            {
              "exemplar": false,
              "expr": "node_time_seconds{host=\"$host\"} - node_boot_time_seconds{host=\"$host\"}",
              "interval": "",
              "legendFormat": "Uptime",
              "queryType": "randomWalk",
              "refId": "A"
            }
          ],
          "thresholds": [],
          "timeFrom": null,
          "timeRegions": [],
          "timeShift": null,
          "title": "Uptime",
          "tooltip": {
            "shared": true,
            "sort": 0,
            "value_type": "individual"
          },
          "type": "graph",
          "xaxis": {
            "buckets": null,
            "mode": "time",
            "name": null,
            "show": true,
            "values": []
          },
          "yaxes": [
            {
              "decimals": null,
              "format": "s",
              "label": "",
              "logBase": 1,
              "max": null,
              "min": "0",
              "show": true
            },
            {
              "format": "short",
              "label": null,
              "logBase": 1,
              "max": null,
              "min": null,
              "show": true
            }
          ],
          "yaxis": {
            "align": false,
            "alignLevel": null
          }
        }
      ],
      "title": "Uptime",
      "type": "row"
    },
    {
      "collapsed": false,
      "datasource": "VictoriaMetrics",
      "gridPos": {
        "h": 1,
        "w": 24,
        "x": 0,
        "y": 36
      },
      "id": 26,
      "panels": [],
      "title": "WiFi",
      "type": "row"
    },
    {
      "aliasColors": {},
      "bars": false,
      "dashLength": 10,
      "dashes": false,
      "datasource": "VictoriaMetrics",
      "description": "",
      "fieldConfig": {
        "defaults": {
          "custom": {},
          "unit": "dBm"
        },
        "overrides": []
      },
      "fill": 0,
      "fillGradient": 0,
      "gridPos": {
        "h": 7,
        "w": 24,
        "x": 0,
        "y": 37
      },
      "hiddenSeries": false,
      "id": 28,
      "legend": {
        "alignAsTable": true,
        "avg": true,
        "current": false,
        "max": true,
        "min": true,
        "rightSide": true,
        "show": true,
        "total": false,
        "values": true
      },
      "lines": true,
      "linewidth": 1,
      "nullPointMode": "null",
      "options": {
        "alertThreshold": true
      },
      "percentage": false,
      "pluginVersion": "7.4.0",
      "pointradius": 2,
      "points": false,
      "renderer": "flot",
      "seriesOverrides": [],
      "spaceLength": 10,
      "stack": false,
      "steppedLine": false,
      "targets": [
        {
          "exemplar": false,
          "expr": "wifi_station_signal_iwavg{host=~\"$host\"} < 0",
          "interval": "",
          "legendFormat": "{{ifname}}: {{mac}} = {{name}}",
          "queryType": "randomWalk",
          "refId": "A"
        },
        {
          "exemplar": false,
          "expr": "wifi_station_signal_dbm{host=~\"$host\"}",
          "hide": false,
          "interval": "",
          "legendFormat": "{{mac}} on {{ifname}} dbm",
          "queryType": "randomWalk",
          "refId": "B"
        }
      ],
      "thresholds": [],
      "timeFrom": null,
      "timeRegions": [],
      "timeShift": null,
      "title": "Neighbour signal avg",
      "tooltip": {
        "shared": true,
        "sort": 0,
        "value_type": "individual"
      },
      "type": "graph",
      "xaxis": {
        "buckets": null,
        "mode": "time",
        "name": null,
        "show": true,
        "values": []
      },
      "yaxes": [
        {
          "format": "dBm",
          "label": null,
          "logBase": 1,
          "max": null,
          "min": null,
          "show": true
        },
        {
          "format": "short",
          "label": null,
          "logBase": 1,
          "max": null,
          "min": null,
          "show": true
        }
      ],
      "yaxis": {
        "align": false,
        "alignLevel": null
      }
    },
    {
      "aliasColors": {},
      "bars": false,
      "dashLength": 10,
      "dashes": false,
      "datasource": "VictoriaMetrics",
      "description": "",
      "fieldConfig": {
        "defaults": {
          "custom": {},
          "unit": "percentunit"
        },
        "overrides": []
      },
      "fill": 0,
      "fillGradient": 0,
      "gridPos": {
        "h": 7,
        "w": 24,
        "x": 0,
        "y": 44
      },
      "hiddenSeries": false,
      "id": 37,
      "legend": {
        "alignAsTable": true,
        "avg": true,
        "current": false,
        "max": true,
        "min": true,
        "rightSide": true,
        "show": true,
        "total": false,
        "values": true
      },
      "lines": true,
      "linewidth": 1,
      "nullPointMode": "null",
      "options": {
        "alertThreshold": true
      },
      "percentage": false,
      "pluginVersion": "7.4.0",
      "pointradius": 2,
      "points": false,
      "renderer": "flot",
      "seriesOverrides": [],
      "spaceLength": 10,
      "stack": false,
      "steppedLine": false,
      "targets": [
        {
          "exemplar": false,
          "expr": "rate(wifi_station_transmit_retries{host=~\"$host\", ifname=~\"$ifname\"})\n/ ignoring(name)\n  (\n   rate(wifi_station_transmit_packets_total{host=~\"$host\", ifname=~\"$ifname\"})\n   + ignoring(name) rate(wifi_station_transmit_retries{host=~\"$host\", ifname=~\"$ifname\"})\n  )",
          "interval": "",
          "legendFormat": "{{ifname}}: {{mac}} = {{name}}",
          "queryType": "randomWalk",
          "refId": "A"
        }
      ],
      "thresholds": [],
      "timeFrom": null,
      "timeRegions": [],
      "timeShift": null,
      "title": "TX Retries",
      "tooltip": {
        "shared": true,
        "sort": 0,
        "value_type": "individual"
      },
      "type": "graph",
      "xaxis": {
        "buckets": null,
        "mode": "time",
        "name": null,
        "show": true,
        "values": []
      },
      "yaxes": [
        {
          "format": "percentunit",
          "label": null,
          "logBase": 1,
          "max": null,
          "min": null,
          "show": true
        },
        {
          "format": "short",
          "label": null,
          "logBase": 1,
          "max": null,
          "min": null,
          "show": true
        }
      ],
      "yaxis": {
        "align": false,
        "alignLevel": null
      }
    },
    {
      "aliasColors": {},
      "bars": false,
      "dashLength": 10,
      "dashes": false,
      "datasource": "VictoriaMetrics",
      "description": "",
      "fieldConfig": {
        "defaults": {
          "custom": {},
          "unit": "percentunit"
        },
        "overrides": []
      },
      "fill": 0,
      "fillGradient": 0,
      "gridPos": {
        "h": 7,
        "w": 24,
        "x": 0,
        "y": 51
      },
      "hiddenSeries": false,
      "id": 30,
      "legend": {
        "alignAsTable": true,
        "avg": true,
        "current": false,
        "max": true,
        "min": true,
        "rightSide": true,
        "show": true,
        "total": false,
        "values": true
      },
      "lines": true,
      "linewidth": 1,
      "nullPointMode": "null",
      "options": {
        "alertThreshold": true
      },
      "percentage": false,
      "pluginVersion": "7.4.0",
      "pointradius": 2,
      "points": false,
      "renderer": "flot",
      "seriesOverrides": [
        {
          "alias": "/receive/",
          "fill": 1,
          "stack": "A",
          "transform": "negative-Y",
          "yaxis": 2,
          "zindex": -2
        },
        {
          "alias": "/transmit/",
          "fill": 1
        },
        {
          "alias": "/interference/",
          "color": "#F2495C",
          "fill": 10,
          "stack": "A",
          "transform": "negative-Y",
          "yaxis": 2,
          "zindex": -3
        }
      ],
      "spaceLength": 10,
      "stack": false,
      "steppedLine": false,
      "targets": [
        {
          "exemplar": false,
          "expr": "rate(wifi_survey_channel_active_time_ms{host=~\"$host\", ifname=~\"$ifname\"}) != 0",
          "hide": true,
          "interval": "",
          "legendFormat": "{{ifname}} active",
          "queryType": "randomWalk",
          "refId": "active"
        },
        {
          "exemplar": false,
          "expr": "rate(wifi_survey_channel_transmit_time_ms{host=~\"$host\", ifname=~\"$ifname\"})\n/ rate(wifi_survey_channel_active_time_ms{host=~\"$host\", ifname=~\"$ifname\"}) != 0",
          "hide": false,
          "interval": "",
          "legendFormat": "{{ifname}} transmit",
          "queryType": "randomWalk",
          "refId": "transmit"
        },
        {
          "exemplar": false,
          "expr": "rate(wifi_survey_channel_receive_time_ms{host=~\"$host\", ifname=~\"$ifname\"})\n/ rate(wifi_survey_channel_active_time_ms{host=~\"$host\", ifname=~\"$ifname\"}) != 0",
          "hide": false,
          "interval": "",
          "legendFormat": "{{ifname}} receive",
          "queryType": "randomWalk",
          "refId": "receive"
        },
        {
          "exemplar": false,
          "expr": "(\n  (\n  rate(wifi_survey_channel_busy_time_ms{host=~\"$host\", ifname=~\"$ifname\"})\n  - rate(wifi_survey_channel_transmit_time_ms{host=~\"$host\", ifname=~\"$ifname\"})\n  - rate(wifi_survey_channel_receive_time_ms{host=~\"$host\", ifname=~\"$ifname\"})\n  )\n  / rate(wifi_survey_channel_active_time_ms{host=~\"$host\", ifname=~\"$ifname\"})\n)\n!= 0",
          "hide": false,
          "interval": "",
          "legendFormat": "{{ifname}} interference",
          "queryType": "randomWalk",
          "refId": "available"
        },
        {
          "exemplar": false,
          "expr": "1000 * (\n   rate(wifi_survey_channel_receive_time_ms{host=~\"$host\", ifname=~\"$ifname\"}) != 0\n + rate(wifi_survey_channel_transmit_time_ms{host=~\"$host\", ifname=~\"$ifname\"}) != 0\n)\n/ rate(wifi_survey_channel_busy_time_ms{host=~\"$host\", ifname=~\"$ifname\"}) != 0",
          "hide": true,
          "interval": "",
          "legendFormat": "{{ifname}} (rx+tx)/busy",
          "queryType": "randomWalk",
          "refId": "E"
        },
        {
          "exemplar": false,
          "expr": "1000 * (\n   rate(wifi_survey_channel_busy_time_ms{host=~\"$host\", ifname=~\"$ifname\"}) != 0\n - rate(wifi_survey_channel_transmit_time_ms{host=~\"$host\", ifname=~\"$ifname\"}) != 0\n)\n/ (\n   rate(wifi_survey_channel_active_time_ms{host=~\"$host\", ifname=~\"$ifname\"}) != 0\n - rate(wifi_survey_channel_transmit_time_ms{host=~\"$host\", ifname=~\"$ifname\"}) != 0\n  )\n",
          "hide": true,
          "interval": "",
          "legendFormat": "{{ifname}} (busy - tx)/(active - tx)",
          "queryType": "randomWalk",
          "refId": "F"
        }
      ],
      "thresholds": [],
      "timeFrom": null,
      "timeRegions": [],
      "timeShift": null,
      "title": "$ifname iwsurvey ",
      "tooltip": {
        "shared": true,
        "sort": 0,
        "value_type": "individual"
      },
      "transformations": [],
      "type": "graph",
      "xaxis": {
        "buckets": null,
        "mode": "time",
        "name": null,
        "show": true,
        "values": []
      },
      "yaxes": [
        {
          "decimals": null,
          "format": "percentunit",
          "label": null,
          "logBase": 1,
          "max": "1",
          "min": "0",
          "show": true
        },
        {
          "decimals": null,
          "format": "percentunit",
          "label": null,
          "logBase": 1,
          "max": "0",
          "min": "-1",
          "show": false
        }
      ],
      "yaxis": {
        "align": false,
        "alignLevel": null
      }
    },
    {
      "collapsed": false,
      "datasource": "VictoriaMetrics",
      "gridPos": {
        "h": 1,
        "w": 24,
        "x": 0,
        "y": 58
      },
      "id": 32,
      "panels": [],
      "title": "WiFi traffic",
      "type": "row"
    },
    {
      "aliasColors": {},
      "bars": false,
      "dashLength": 10,
      "dashes": false,
      "datasource": "VictoriaMetrics",
      "description": "",
      "fieldConfig": {
        "defaults": {
          "custom": {},
          "unit": "Bps"
        },
        "overrides": []
      },
      "fill": 1,
      "fillGradient": 0,
      "gridPos": {
        "h": 8,
        "w": 24,
        "x": 0,
        "y": 59
      },
      "hiddenSeries": false,
      "id": 35,
      "legend": {
        "alignAsTable": true,
        "avg": true,
        "current": false,
        "max": true,
        "min": true,
        "rightSide": true,
        "show": true,
        "total": false,
        "values": true
      },
      "lines": true,
      "linewidth": 1,
      "nullPointMode": "null",
      "options": {
        "alertThreshold": true
      },
      "percentage": false,
      "pluginVersion": "7.4.0",
      "pointradius": 2,
      "points": false,
      "renderer": "flot",
      "seriesOverrides": [
        {
          "alias": "/tx/",
          "transform": "negative-Y"
        }
      ],
      "spaceLength": 10,
      "stack": false,
      "steppedLine": false,
      "targets": [
        {
          "expr": "topk_avg(3, \n    rate(node_network_receive_bytes_total{host=~\"$host\",device=~\"wlan[^_]*\"})\n  + rate(node_network_transmit_bytes_total{host=~\"$host\",device=~\"wlan[^_]*\"})\n  )\n - rate(node_network_transmit_bytes_total{host=~\"$host\",device=~\"wlan[^_]*\"})",
          "instant": false,
          "interval": "",
          "legendFormat": "{{device}} rx",
          "refId": "rx"
        },
        {
          "expr": "topk_avg(3, \n    rate(node_network_receive_bytes_total{host=~\"$host\",device=~\"wlan[^_]*\"})\n  + rate(node_network_transmit_bytes_total{host=~\"$host\",device=~\"wlan[^_]*\"})\n  )\n - rate(node_network_receive_bytes_total{host=~\"$host\",device=~\"wlan[^_]*\"})",
          "hide": false,
          "instant": false,
          "interval": "",
          "legendFormat": "{{device}} tx",
          "refId": "tx"
        }
      ],
      "thresholds": [],
      "timeFrom": null,
      "timeRegions": [],
      "timeShift": null,
      "title": "3 most active WiFi devices",
      "tooltip": {
        "shared": true,
        "sort": 0,
        "value_type": "individual"
      },
      "transformations": [],
      "type": "graph",
      "xaxis": {
        "buckets": null,
        "mode": "time",
        "name": null,
        "show": true,
        "values": []
      },
      "yaxes": [
        {
          "format": "Bps",
          "label": null,
          "logBase": 1,
          "max": null,
          "min": null,
          "show": true
        },
        {
          "format": "short",
          "label": null,
          "logBase": 1,
          "max": null,
          "min": null,
          "show": true
        }
      ],
      "yaxis": {
        "align": false,
        "alignLevel": null
      }
    },
    {
      "aliasColors": {},
      "bars": false,
      "dashLength": 10,
      "dashes": false,
      "datasource": "VictoriaMetrics",
      "description": "",
      "fieldConfig": {
        "defaults": {
          "custom": {},
          "unit": "bps"
        },
        "overrides": []
      },
      "fill": 1,
      "fillGradient": 0,
      "gridPos": {
        "h": 8,
        "w": 24,
        "x": 0,
        "y": 67
      },
      "hiddenSeries": false,
      "id": 38,
      "legend": {
        "alignAsTable": true,
        "avg": true,
        "current": false,
        "max": true,
        "min": true,
        "rightSide": true,
        "show": true,
        "total": false,
        "values": true
      },
      "lines": true,
      "linewidth": 1,
      "nullPointMode": "null",
      "options": {
        "alertThreshold": true
      },
      "percentage": false,
      "pluginVersion": "7.4.0",
      "pointradius": 2,
      "points": false,
      "renderer": "flot",
      "seriesOverrides": [
        {
          "alias": "/tx/",
          "transform": "negative-Y"
        }
      ],
      "spaceLength": 10,
      "stack": false,
      "steppedLine": false,
      "targets": [
        {
          "expr": "8 * topk_avg(3, \n    rate(node_network_receive_bytes_total{host=~\"$host\",device=~\".*\"})\n  + rate(node_network_transmit_bytes_total{host=~\"$host\",device=~\".*\"})\n  )\n - rate(node_network_transmit_bytes_total{host=~\"$host\",device=~\".*\"})",
          "instant": false,
          "interval": "",
          "legendFormat": "{{device}} rx",
          "refId": "rx"
        },
        {
          "expr": "8 * topk_avg(3, \n    rate(node_network_receive_bytes_total{host=~\"$host\",device=~\".*\"})\n  + rate(node_network_transmit_bytes_total{host=~\"$host\",device=~\".*\"})\n  )\n - rate(node_network_receive_bytes_total{host=~\"$host\",device=~\".*\"})",
          "hide": false,
          "instant": false,
          "interval": "",
          "legendFormat": "{{device}} tx",
          "refId": "tx"
        }
      ],
      "thresholds": [],
      "timeFrom": null,
      "timeRegions": [],
      "timeShift": null,
      "title": "3 most active devices",
      "tooltip": {
        "shared": true,
        "sort": 0,
        "value_type": "individual"
      },
      "transformations": [],
      "type": "graph",
      "xaxis": {
        "buckets": null,
        "mode": "time",
        "name": null,
        "show": true,
        "values": []
      },
      "yaxes": [
        {
          "format": "bps",
          "label": null,
          "logBase": 1,
          "max": null,
          "min": null,
          "show": true
        },
        {
          "format": "short",
          "label": null,
          "logBase": 1,
          "max": null,
          "min": null,
          "show": true
        }
      ],
      "yaxis": {
        "align": false,
        "alignLevel": null
      }
    },
    {
      "aliasColors": {},
      "bars": false,
      "dashLength": 10,
      "dashes": false,
      "datasource": "VictoriaMetrics",
      "description": "",
      "fieldConfig": {
        "defaults": {
          "custom": {},
          "unit": "bytes"
        },
        "overrides": []
      },
      "fill": 1,
      "fillGradient": 0,
      "gridPos": {
        "h": 8,
        "w": 24,
        "x": 0,
        "y": 75
      },
      "hiddenSeries": false,
      "id": 36,
      "legend": {
        "alignAsTable": true,
        "avg": true,
        "current": false,
        "max": true,
        "min": true,
        "rightSide": true,
        "show": true,
        "total": false,
        "values": true
      },
      "lines": true,
      "linewidth": 1,
      "nullPointMode": "null",
      "options": {
        "alertThreshold": true
      },
      "percentage": false,
      "pluginVersion": "7.4.0",
      "pointradius": 2,
      "points": false,
      "renderer": "flot",
      "seriesOverrides": [
        {
          "alias": "/tx/",
          "transform": "negative-Y"
        }
      ],
      "spaceLength": 10,
      "stack": false,
      "steppedLine": false,
      "targets": [
        {
          "expr": "(\n topk_avg(3, \n    rate(node_network_receive_bytes_total{host=~\"$host\"})\n  + rate(node_network_transmit_bytes_total{host=~\"$host\"})\n  )\n - rate(node_network_transmit_bytes_total{host=~\"$host\"})\n) / rate(node_network_receive_packets_total{host=~\"$host\"})",
          "instant": false,
          "interval": "",
          "legendFormat": "{{device}} rx pkt size",
          "refId": "rx"
        },
        {
          "expr": " (\n topk_avg(3, \n    rate(node_network_receive_bytes_total{host=~\"$host\"})\n  + rate(node_network_transmit_bytes_total{host=~\"$host\"})\n  )\n - rate(node_network_receive_bytes_total{host=~\"$host\"})\n) / rate(node_network_transmit_packets_total{host=~\"$host\"})",
          "hide": false,
          "instant": false,
          "interval": "",
          "legendFormat": "{{device}} tx pkt size",
          "refId": "tx"
        }
      ],
      "thresholds": [],
      "timeFrom": null,
      "timeRegions": [],
      "timeShift": null,
      "title": "average packet size",
      "tooltip": {
        "shared": true,
        "sort": 0,
        "value_type": "individual"
      },
      "transformations": [],
      "type": "graph",
      "xaxis": {
        "buckets": null,
        "mode": "time",
        "name": null,
        "show": true,
        "values": []
      },
      "yaxes": [
        {
          "format": "bytes",
          "label": null,
          "logBase": 1,
          "max": null,
          "min": null,
          "show": true
        },
        {
          "format": "short",
          "label": null,
          "logBase": 1,
          "max": null,
          "min": null,
          "show": true
        }
      ],
      "yaxis": {
        "align": false,
        "alignLevel": null
      }
    },
    {
      "collapsed": false,
      "datasource": "VictoriaMetrics",
      "gridPos": {
        "h": 1,
        "w": 24,
        "x": 0,
        "y": 83
      },
      "id": 13,
      "panels": [],
      "title": "Logs",
      "type": "row"
    },
    {
      "datasource": "Loki",
      "description": "",
      "fieldConfig": {
        "defaults": {
          "custom": {}
        },
        "overrides": []
      },
      "gridPos": {
        "h": 8,
        "w": 24,
        "x": 0,
        "y": 84
      },
      "id": 11,
      "links": [],
      "options": {
        "dedupStrategy": "signature",
        "showLabels": false,
        "showTime": true,
        "sortOrder": "Descending",
        "wrapLogMessage": true
      },
      "pluginVersion": "7.5.1",
      "targets": [
        {
          "expr": "{host=\"$host\"}",
          "instant": false,
          "legendFormat": "",
          "queryType": "randomWalk",
          "range": true,
          "refId": "A"
        }
      ],
      "title": "Logs",
      "type": "logs"
    }
  ],
  "refresh": false,
  "schemaVersion": 27,
  "style": "dark",
  "tags": [],
  "templating": {
    "list": [
      {
        "allValue": null,
        "current": {},
        "datasource": "VictoriaMetrics",
        "definition": "label_values(domain)",
        "description": null,
        "error": null,
        "hide": 0,
        "includeAll": false,
        "label": null,
        "multi": false,
        "name": "domain",
        "options": [],
        "query": {
          "query": "label_values(domain)",
          "refId": "StandardVariableQuery"
        },
        "refresh": 1,
        "regex": "",
        "skipUrlSync": false,
        "sort": 0,
        "tagValuesQuery": "",
        "tags": [],
        "tagsQuery": "",
        "type": "query",
        "useTags": false
      },
      {
        "allValue": null,
        "current": {},
        "datasource": "VictoriaMetrics",
        "definition": "label_values(node_time_seconds{domain=~\"$domain\"},host)",
        "description": null,
        "error": null,
        "hide": 0,
        "includeAll": false,
        "label": null,
        "multi": false,
        "name": "host",
        "options": [],
        "query": {
          "query": "label_values(node_time_seconds{domain=~\"$domain\"},host)",
          "refId": "StandardVariableQuery"
        },
        "refresh": 1,
        "regex": "",
        "skipUrlSync": false,
        "sort": 5,
        "tagValuesQuery": "",
        "tags": [],
        "tagsQuery": "",
        "type": "query",
        "useTags": false
      },
      {
        "auto": true,
        "auto_count": "100",
        "auto_min": "1m",
        "current": {
          "selected": false,
          "text": "auto",
          "value": "$__auto_interval_interval"
        },
        "description": null,
        "error": null,
        "hide": 0,
        "label": null,
        "name": "interval",
        "options": [
          {
            "selected": true,
            "text": "auto",
            "value": "$__auto_interval_interval"
          },
          {
            "selected": false,
            "text": "1m",
            "value": "1m"
          },
          {
            "selected": false,
            "text": "10m",
            "value": "10m"
          },
          {
            "selected": false,
            "text": "30m",
            "value": "30m"
          },
          {
            "selected": false,
            "text": "1h",
            "value": "1h"
          },
          {
            "selected": false,
            "text": "6h",
            "value": "6h"
          },
          {
            "selected": false,
            "text": "12h",
            "value": "12h"
          },
          {
            "selected": false,
            "text": "1d",
            "value": "1d"
          },
          {
            "selected": false,
            "text": "7d",
            "value": "7d"
          },
          {
            "selected": false,
            "text": "14d",
            "value": "14d"
          },
          {
            "selected": false,
            "text": "30d",
            "value": "30d"
          }
        ],
        "query": "1m,10m,30m,1h,6h,12h,1d,7d,14d,30d",
        "queryValue": "",
        "refresh": 2,
        "skipUrlSync": false,
        "type": "interval"
      },
      {
        "allValue": null,
        "current": {},
        "datasource": "VictoriaMetrics",
        "definition": "label_values(wifi_stations{host=~\"$host\"},ifname)",
        "description": null,
        "error": null,
        "hide": 0,
        "includeAll": false,
        "label": "WiFi interface",
        "multi": false,
        "name": "ifname",
        "options": [],
        "query": {
          "query": "label_values(wifi_stations{host=~\"$host\"},ifname)",
          "refId": "StandardVariableQuery"
        },
        "refresh": 1,
        "regex": "",
        "skipUrlSync": false,
        "sort": 0,
        "tagValuesQuery": "",
        "tags": [],
        "tagsQuery": "",
        "type": "query",
        "useTags": false
      }
    ]
  },
  "time": {
    "from": "now-24h",
    "to": "now"
  },
  "timepicker": {
    "refresh_intervals": [
      "5s",
      "10s",
      "30s",
      "1m",
      "5m",
      "15m",
      "30m",
      "1h",
      "2h",
      "1d"
    ]
  },
  "timezone": "",
  "title": "Panorama Nodo",
  "uid": "panorama-nodo",
  "version": 19
}
