{
  "__inputs": [
    {
      "name": "DS_VICTORIAMETRICS",
      "label": "VictoriaMetrics",
      "description": "",
      "type": "datasource",
      "pluginId": "prometheus",
      "pluginName": "Prometheus"
    },
    {
      "name": "VAR_PUSH_INTERVAL",
      "type": "constant",
      "label": "push_interval",
      "value": "30",
      "description": ""
    }
  ],
  "__requires": [
    {
      "type": "grafana",
      "id": "grafana",
      "name": "Grafana",
      "version": "7.4.0"
    },
    {
      "type": "datasource",
      "id": "prometheus",
      "name": "Prometheus",
      "version": "1.0.0"
    },
    {
      "type": "panel",
      "id": "table",
      "name": "Table",
      "version": ""
    }
  ],
  "annotations": {
    "list": [
      {
        "builtIn": 1,
        "datasource": "-- Grafana --",
        "enable": true,
        "hide": true,
        "iconColor": "rgba(0, 211, 255, 1)",
        "name": "Annotations & Alerts",
        "type": "dashboard"
      },
      {
        "datasource": "VictoriaMetrics",
        "enable": true,
        "expr": "node_boot_time_seconds{host=~\"$host\"} * 1000",
        "hide": false,
        "iconColor": "rgba(255, 96, 96, 1)",
        "name": "Mark reboots",
        "showIn": 0,
        "titleFormat": "{{host}} boot",
        "useValueForTime": true
      }
    ]
  },
  "editable": true,
  "gnetId": null,
  "graphTooltip": 0,
  "id": null,
  "iteration": 1631648536348,
  "links": [
    {
      "asDropdown": true,
      "icon": "external link",
      "includeVars": true,
      "keepTime": true,
      "tags": [],
      "targetBlank": true,
      "title": "Otros Dashboards",
      "type": "dashboards"
    }
  ],
  "panels": [
    {
      "collapsed": false,
      "datasource": "VictoriaMetrics",
      "gridPos": {
        "h": 1,
        "w": 24,
        "x": 0,
        "y": 0
      },
      "id": 12,
      "panels": [],
      "title": "Technical details",
      "type": "row"
    },
    {
      "datasource": "VictoriaMetrics",
      "description": "",
      "fieldConfig": {
        "defaults": {
          "color": {
            "mode": "thresholds"
          },
          "custom": {
            "align": null,
            "displayMode": "color-text",
            "filterable": false
          },
          "mappings": [],
          "thresholds": {
            "mode": "percentage",
            "steps": [
              {
                "color": "rgb(255, 255, 255)",
                "value": null
              }
            ]
          },
          "unit": "percent"
        },
        "overrides": [
          {
            "matcher": {
              "id": "byName",
              "options": "board_name"
            },
            "properties": [
              {
                "id": "custom.width",
                "value": 105
              }
            ]
          },
          {
            "matcher": {
              "id": "byName",
              "options": "up"
            },
            "properties": [
              {
                "id": "custom.width",
                "value": 73
              }
            ]
          },
          {
            "matcher": {
              "id": "byName",
              "options": "host"
            },
            "properties": [
              {
                "id": "links",
                "value": [
                  {
                    "targetBlank": true,
                    "title": "",
                    "url": "/d/panorama-nodo?${__url_time_range}&var-host=${__data.fields[host]}"
                  }
                ]
              },
              {
                "id": "custom.width",
                "value": 93
              }
            ]
          },
          {
            "matcher": {
              "id": "byName",
              "options": "cpu"
            },
            "properties": [
              {
                "id": "thresholds",
                "value": {
                  "mode": "percentage",
                  "steps": [
                    {
                      "color": "green",
                      "value": null
                    },
                    {
                      "color": "red",
                      "value": 80
                    }
                  ]
                }
              }
            ]
          },
          {
            "matcher": {
              "id": "byName",
              "options": "up"
            },
            "properties": [
              {
                "id": "unit",
                "value": "dtdhms"
              },
              {
                "id": "thresholds",
                "value": {
                  "mode": "absolute",
                  "steps": [
                    {
                      "color": "red",
                      "value": null
                    },
                    {
                      "color": "#EAB839",
                      "value": 3600
                    },
                    {
                      "color": "green",
                      "value": 86400
                    }
                  ]
                }
              }
            ]
          },
          {
            "matcher": {
              "id": "byName",
              "options": "SLA"
            },
            "properties": [
              {
                "id": "custom.width",
                "value": 61
              }
            ]
          },
          {
            "matcher": {
              "id": "byName",
              "options": "Last seen"
            },
            "properties": [
              {
                "id": "unit",
                "value": "dateTimeAsSystem"
              }
            ]
          },
          {
            "matcher": {
              "id": "byName",
              "options": "RAM"
            },
            "properties": [
              {
                "id": "custom.width",
                "value": 53
              }
            ]
          },
          {
            "matcher": {
              "id": "byName",
              "options": "Load"
            },
            "properties": [
              {
                "id": "custom.width",
                "value": 70
              }
            ]
          },
          {
            "matcher": {
              "id": "byName",
              "options": "Load"
            },
            "properties": [
              {
                "id": "unit",
                "value": "short"
              },
              {
                "id": "decimals",
                "value": 2
              }
            ]
          },
          {
            "matcher": {
              "id": "byName",
              "options": "CPU"
            },
            "properties": [
              {
                "id": "custom.width",
                "value": 94
              }
            ]
          },
          {
            "matcher": {
              "id": "byName",
              "options": "machine"
            },
            "properties": [
              {
                "id": "custom.width",
                "value": 63
              }
            ]
          },
          {
            "matcher": {
              "id": "byName",
              "options": "kernel_release"
            },
            "properties": [
              {
                "id": "custom.width",
                "value": 96
              }
            ]
          },
          {
            "matcher": {
              "id": "byName",
              "options": "kernel version"
            },
            "properties": [
              {
                "id": "custom.width",
                "value": 226
              }
            ]
          },
          {
            "matcher": {
              "id": "byName",
              "options": "target"
            },
            "properties": [
              {
                "id": "custom.width",
                "value": 117
              }
            ]
          }
        ]
      },
      "gridPos": {
        "h": 21,
        "w": 24,
        "x": 0,
        "y": 1
      },
      "id": 39,
      "links": [],
      "options": {
        "frameIndex": 0,
        "showHeader": true,
        "sortBy": [
          {
            "desc": true,
            "displayName": "SLA"
          }
        ]
      },
      "pluginVersion": "7.4.0",
      "targets": [
        {
          "exemplar": false,
          "expr": "100 * (1 - rate(node_cpu_seconds_total{host=~\"$host\", mode=\"idle\"}[$__range])) > 0",
          "format": "table",
          "hide": false,
          "instant": true,
          "interval": "",
          "legendFormat": "CPU",
          "refId": "CPU"
        },
        {
          "exemplar": false,
          "expr": "ru(\n    (\n        node_memory_MemFree_bytes{host=~\"$host\"}[$__range] \n      + node_memory_Cached_bytes{host=~\"$host\"}[$__range]\n      + node_memory_Buffers_bytes{host=~\"$host\"}[$__range]\n    )\n    ,\n    node_memory_MemTotal_bytes{host=~\"$host\"}[$__range]\n  )",
          "format": "table",
          "hide": false,
          "instant": true,
          "interval": "",
          "legendFormat": "RAM Free",
          "refId": "RAM Used"
        },
        {
          "exemplar": false,
          "expr": "label_del(avg_over_time(node_load1{host=~\"$host\"}[$__range]), \"__name__\")",
          "format": "table",
          "hide": false,
          "instant": true,
          "interval": "",
          "legendFormat": "Load",
          "refId": "Load"
        },
        {
          "exemplar": false,
          "expr": "range_last(\n  label_del(\n    node_openwrt_info{host=~\"$host\"}[$__range],\n    \"__name__\"\n  )\n)",
          "format": "table",
          "hide": false,
          "instant": true,
          "interval": "",
          "legendFormat": "",
          "refId": "OpenWrt"
        },
        {
          "exemplar": false,
          "expr": "range_last(\n  label_move(\n    node_uname_info{host=~\"$host\"}[$__range],\n    \"release\", \"kernel_release\"\n  )\n)",
          "format": "table",
          "hide": false,
          "instant": true,
          "interval": "",
          "legendFormat": "",
          "refId": "uname_info"
        },
        {
          "exemplar": false,
          "expr": "100 * count_over_time(node_boot_time_seconds{host=~\"$host\"}[$__range])\n    / ( $__range_s / $push_interval )",
          "format": "table",
          "hide": false,
          "instant": true,
          "interval": "",
          "legendFormat": "",
          "refId": "SLA"
        },
        {
          "exemplar": false,
          "expr": "tlast_over_time(node_boot_time_seconds{host=~\"$host\"}[$__range]) * 1000",
          "format": "table",
          "hide": false,
          "instant": true,
          "interval": "",
          "legendFormat": "",
          "refId": "Last seen"
        },
        {
          "exemplar": false,
          "expr": "node_time_seconds{host=~\"$host\"} - node_boot_time_seconds{host=~\"$host\"}",
          "format": "table",
          "hide": false,
          "instant": true,
          "interval": "",
          "legendFormat": "",
          "refId": "Uptime"
        }
      ],
      "timeFrom": null,
      "timeShift": null,
      "title": "CPU, RAM, Load + Health + OpenWrt info + Kernel",
      "transformations": [
        {
          "id": "merge",
          "options": {}
        },
        {
          "id": "organize",
          "options": {
            "excludeByName": {
              "Time": true,
              "Value": true,
              "Value #B": true,
              "Value #C": true,
              "Value #OpenWRT Table": true,
              "Value #OpenWrt": true,
              "Value #uname_info": true,
              "__name__": true,
              "ap_ssid": false,
              "cpu": true,
              "domain": true,
              "domainname": true,
              "hostmac": true,
              "instance": true,
              "job": true,
              "machine": false,
              "mode": true,
              "nodename": true,
              "sysname": true
            },
            "indexByName": {
              "Time": 0,
              "Value #CPU": 2,
              "Value #Last seen": 11,
              "Value #Load": 4,
              "Value #RAM Used": 3,
              "Value #SLA": 5,
              "Value #Uptime": 6,
              "__name__": 12,
              "cpu": 9,
              "domain": 8,
              "host": 1,
              "hostmac": 7,
              "mode": 10
            },
            "renameByName": {
              "Value #A": "",
              "Value #B": "",
              "Value #CPU": "CPU",
              "Value #D": "uptime",
              "Value #Last seen": "Last seen",
              "Value #Load": "Load",
              "Value #RAM": "RAM Used",
              "Value #RAM Used": "RAM",
              "Value #SLA": "SLA",
              "Value #Uptime": "up",
              "__name__": "",
              "board_name": "",
              "host": "",
              "machine": "",
              "mode": "",
              "release": "",
              "revision": "",
              "sysname": "",
              "target": "",
              "version": "kernel version"
            }
          }
        }
      ],
      "type": "table"
    }
  ],
  "refresh": "30s",
  "schemaVersion": 27,
  "style": "dark",
  "tags": [],
  "templating": {
    "list": [
      {
        "allValue": null,
        "current": {},
        "datasource": "VictoriaMetrics",
        "definition": "label_values(domain)",
        "description": null,
        "error": null,
        "hide": 0,
        "includeAll": true,
        "label": null,
        "multi": true,
        "name": "domain",
        "options": [],
        "query": {
          "query": "label_values(domain)",
          "refId": "StandardVariableQuery"
        },
        "refresh": 1,
        "regex": "",
        "skipUrlSync": false,
        "sort": 0,
        "tagValuesQuery": "",
        "tags": [],
        "tagsQuery": "",
        "type": "query",
        "useTags": false
      },
      {
        "allValue": null,
        "current": {},
        "datasource": "VictoriaMetrics",
        "definition": "label_values(node_openwrt_info{domain=~\"$domain\"}, model)",
        "description": null,
        "error": null,
        "hide": 0,
        "includeAll": true,
        "label": null,
        "multi": true,
        "name": "model",
        "options": [],
        "query": {
          "query": "label_values(node_openwrt_info{domain=~\"$domain\"}, model)",
          "refId": "StandardVariableQuery"
        },
        "refresh": 1,
        "regex": "",
        "skipUrlSync": false,
        "sort": 0,
        "tagValuesQuery": "",
        "tags": [],
        "tagsQuery": "",
        "type": "query",
        "useTags": false
      },
      {
        "allValue": null,
        "current": {},
        "datasource": "VictoriaMetrics",
        "definition": "label_values(node_openwrt_info{domain=~\"$domain\", model=~\"$model\"}, host)",
        "description": null,
        "error": null,
        "hide": 0,
        "includeAll": true,
        "label": null,
        "multi": true,
        "name": "host",
        "options": [],
        "query": {
          "query": "label_values(node_openwrt_info{domain=~\"$domain\", model=~\"$model\"}, host)",
          "refId": "StandardVariableQuery"
        },
        "refresh": 1,
        "regex": "",
        "skipUrlSync": false,
        "sort": 0,
        "tagValuesQuery": "",
        "tags": [],
        "tagsQuery": "",
        "type": "query",
        "useTags": false
      },
      {
        "description": null,
        "error": null,
        "hide": 2,
        "label": null,
        "name": "push_interval",
        "query": "30",
        "skipUrlSync": false,
        "type": "constant"
      }
    ]
  },
  "time": {
    "from": "now-24h",
    "to": "now"
  },
  "timepicker": {
    "refresh_intervals": [
      "5s",
      "10s",
      "30s",
      "1m",
      "5m",
      "15m",
      "30m",
      "1h",
      "2h",
      "1d"
    ]
  },
  "timezone": "Europe/Madrid",
  "title": "Panorama en Tabla",
  "uid": "PmktqyZnk",
  "version": 7
}
